<svg width="32" height="32" viewBox="0 0 32 32" fill="none" xmlns="http://www.w3.org/2000/svg">
<path d="M4.79122 5.36996C1.66122 8.34996 0.0612175 11.96 0.00121749 16.21C-0.0487825 20.51 1.44122 24.19 4.48122 27.24C7.52122 30.29 11.2312 31.84 15.6112 31.9C19.8512 31.96 23.5212 30.49 26.6112 27.5C28.0712 26.08 29.2112 24.46 30.0212 22.64C30.8712 20.74 31.3012 18.76 31.3312 16.7C31.3812 12.43 29.9012 8.76996 26.9012 5.69996C23.9012 2.62996 20.2712 1.05996 15.9912 0.999961C11.6612 0.929961 7.93122 2.38996 4.79122 5.36996ZM1.16122 16.43C1.16122 12.48 2.56122 9.09996 5.39122 6.31996C8.21122 3.51996 11.6312 2.11996 15.6412 2.11996C19.6512 2.11996 23.1112 3.51996 25.9512 6.30996C28.7912 9.10996 30.2212 12.5 30.2212 16.48C30.2212 20.41 28.8112 23.78 25.9712 26.58C23.1412 29.39 19.7212 30.8 15.7212 30.82C11.7112 30.84 8.28122 29.43 5.43122 26.62C2.58122 23.8 1.16122 20.4 1.16122 16.43Z" fill="white"/>
<path d="M23.9012 10.3C23.9412 9.58996 23.8612 9.13996 23.6312 8.95996C23.4112 8.77996 23.0112 8.79996 22.4312 9.02996C21.0012 9.56996 18.8212 10.39 15.8712 11.51L5.42122 15.59C5.06122 15.72 4.86122 15.81 4.82122 15.86C4.60122 15.99 4.51122 16.17 4.55122 16.4C4.59122 16.58 4.71122 16.71 4.88122 16.8C5.15122 16.89 5.35122 16.96 5.48122 17C6.15122 17.22 6.64122 17.4 6.95122 17.54C7.53122 17.72 8.04122 17.85 8.49122 17.94C8.89122 18.03 9.23122 18.21 9.49122 18.48C9.71122 18.7 9.87122 19.04 9.96122 19.48C10.1412 20.1 10.5212 21.38 11.1012 23.3C11.2812 23.84 11.4812 24.13 11.7012 24.17C11.9212 24.21 12.2612 24.04 12.7012 23.63C13.3712 23.05 13.8612 22.58 14.1712 22.22C14.3912 21.95 14.6212 21.82 14.8412 21.82C15.0612 21.82 15.3312 21.93 15.6412 22.15C16.7612 23.04 17.9612 23.94 19.2512 24.83C19.7412 25.14 20.1212 25.25 20.3912 25.16C20.6112 25.07 20.7912 24.74 20.9312 24.16C20.9712 24.03 21.3312 22.4 22.0012 19.27L23.8712 10.3H23.9012Z" fill="white"/>
</svg>
