<svg width="25" height="24" viewBox="0 0 25 24" fill="none" xmlns="http://www.w3.org/2000/svg">
<path d="M24.0942 11.65C24.0942 10.07 23.7842 8.56 23.1742 7.12C22.5842 5.73 21.7542 4.49 20.6742 3.42C19.6042 2.34 18.3642 1.51 16.9742 0.92C15.5342 0.31 14.0242 0 12.4442 0C10.8642 0 9.35419 0.31 7.91419 0.92C6.52419 1.51 5.28419 2.34 4.21419 3.42C3.13419 4.49 2.30419 5.73 1.71419 7.12C1.10419 8.56 0.794189 10.07 0.794189 11.65C0.794189 13.23 1.10419 14.74 1.71419 16.18C2.30419 17.57 3.13419 18.81 4.21419 19.88C5.29419 20.95 6.52419 21.79 7.91419 22.37C9.35419 22.98 10.8642 23.29 12.4442 23.29C14.0242 23.29 15.5342 22.98 16.9742 22.37C18.3642 21.78 19.6042 20.95 20.6742 19.88C21.7542 18.8 22.5842 17.57 23.1742 16.18C23.7842 14.74 24.0942 13.23 24.0942 11.65ZM5.20419 12.17C5.23419 11.96 5.52419 11.74 6.07419 11.53C9.42419 10.07 11.6942 9.09 12.8642 8.6C14.4442 7.94 15.5242 7.51 16.0842 7.31C16.6042 7.12 16.9842 7.02 17.2042 7.02C17.2742 7.02 17.3442 7.02 17.4142 7.05C17.5142 7.07 17.5942 7.11 17.6542 7.16C17.7542 7.24 17.8042 7.35 17.8142 7.47C17.8342 7.62 17.8442 7.78 17.8342 7.93C17.7542 8.76 17.5642 10.13 17.2542 12.03C16.9942 13.61 16.7542 15.03 16.5142 16.3C16.4342 16.71 16.3242 17.01 16.1742 17.21C16.0442 17.38 15.8942 17.47 15.7242 17.49C15.4342 17.52 15.1242 17.43 14.7942 17.24C14.6842 17.17 14.5342 17.08 14.3442 16.94C14.1142 16.78 13.9542 16.67 13.8742 16.61C13.5142 16.37 13.0742 16.08 12.5642 15.73C12.0142 15.35 11.5842 15.06 11.2742 14.86C10.7742 14.53 10.5842 14.21 10.7242 13.9C10.7742 13.78 10.8842 13.64 11.0542 13.47C11.2642 13.27 11.4242 13.11 11.5342 13C12.1142 12.46 12.6642 11.95 13.1842 11.46C14.2042 10.5 14.7242 9.97 14.7442 9.87C14.7442 9.84 14.7442 9.81 14.7442 9.78C14.7442 9.73 14.7142 9.69 14.6842 9.66C14.6542 9.63 14.6142 9.62 14.5642 9.62C14.5342 9.62 14.4942 9.62 14.4442 9.64C14.3442 9.66 12.7042 10.75 9.53419 12.89C9.07419 13.21 8.64419 13.36 8.27419 13.35C7.92419 13.35 7.32419 13.2 6.46419 12.92C5.93419 12.75 5.62419 12.64 5.54419 12.6C5.29419 12.48 5.18419 12.33 5.20419 12.15V12.17Z" fill="#831010"/>
</svg>
