<svg width="19" height="18" viewBox="0 0 19 18" fill="none" xmlns="http://www.w3.org/2000/svg">
<path d="M16.2127 2.63694C15.3815 1.80573 14.4261 1.16561 13.356 0.707006C12.2382 0.238853 11.0726 0 9.84964 0C8.62671 0 7.46111 0.238853 6.34327 0.707006C5.26365 1.16561 4.30824 1.80573 3.47703 2.63694C2.64582 3.46815 2.00569 4.42357 1.54709 5.49363C1.07894 6.61146 0.840088 7.77707 0.840088 9C0.840088 10.2229 1.07894 11.3885 1.54709 12.5064C2.00569 13.586 2.64582 14.5414 3.47703 15.3726C4.30824 16.2038 5.26365 16.844 6.34327 17.3025C7.46111 17.7707 8.62671 18.0096 9.84964 18.0096C11.0726 18.0096 12.2382 17.7707 13.356 17.3025C14.4356 16.844 15.3815 16.2038 16.2127 15.3726C17.0439 14.5414 17.684 13.586 18.1426 12.5064C18.6108 11.3885 18.8496 10.2229 18.8496 9C18.8496 7.77707 18.6108 6.61146 18.1426 5.49363C17.684 4.41401 17.0439 3.4586 16.2127 2.63694ZM13.6904 10.5478C13.8815 10.6815 14.0057 10.8535 14.0535 11.0828C14.1012 11.3121 14.0535 11.5223 13.9293 11.7134C13.7955 11.9045 13.6235 12.0287 13.3942 12.0764C13.1649 12.1242 12.9547 12.0764 12.7637 11.9522L9.38149 9.69745C9.26684 9.62102 9.1713 9.51592 9.10442 9.39172C9.03754 9.26752 9.00888 9.13376 9.00888 8.99045V4.22293C9.00888 3.99363 9.09486 3.79299 9.25729 3.62102C9.41971 3.4586 9.62034 3.37261 9.8592 3.37261C10.0981 3.37261 10.2891 3.4586 10.4516 3.62102C10.614 3.78344 10.7 3.98408 10.7 4.22293V8.55095L13.7 10.5478H13.6904Z" fill="#831010"/>
</svg>
